__CFG_XINST$OFF 0 0 ABS 0
__S0 30000E 0 ABS 0
__S1 0 0 ABS 0
__S2 0 0 ABS 0
_SSP1STATbits FC7 0 ABS 0
__Hintentry 0 0 ABS 0
__Lintentry 0 0 ABS 0
__CFG_PLLCFG$OFF 0 0 ABS 0
_LATD F8C 0 ABS 0
_main 1014 0 CODE 0
___sp 0 0 STACK 2
start 0 0 CODE 0
_TRISB F93 0 ABS 0
_PORTB F81 0 ABS 0
__Hirdata 0 0 CODE 0
__Lirdata 0 0 CODE 0
__HRAM 0 0 ABS 0
_PORTD F83 0 ABS 0
__LRAM 1 0 ABS 0
__CFG_WDTPS$32768 0 0 ABS 0
__Hconfig 30000E 0 CONFIG 0
__Lconfig 300000 0 CONFIG 0
__CFG_FOSC$INTIO7 0 0 ABS 0
__Hbigram 0 0 ABS 0
__Lbigram 0 0 ABS 0
__Hrparam 0 0 COMRAM 1
__Lrparam 0 0 COMRAM 1
__Hram 0 0 ABS 0
__Lram 0 0 ABS 0
__Hcomram 0 0 ABS 0
__Lcomram 0 0 ABS 0
__Hsfr 0 0 ABS 0
__Lsfr 0 0 ABS 0
__Hbss 0 0 RAM 1
__CFG_STVREN$ON 0 0 ABS 0
__Lbss 0 0 RAM 1
___param_bank 0 0 ABS 0
__Hnvrram 0 0 COMRAM 1
__Lnvrram 0 0 COMRAM 1
__Heeprom_data 0 0 EEDATA 0
__Leeprom_data 0 0 EEDATA 0
_PIR1bits F9E 0 ABS 0
_PIR2bits FA1 0 ABS 0
_LATDbits F8C 0 ABS 0
__Hintsave_regs 0 0 BIGRAM 1
__Lintsave_regs 0 0 BIGRAM 1
_ANSELB F39 0 ABS 0
__Hbigbss 0 0 BIGRAM 1
__Lbigbss 0 0 BIGRAM 1
__Hintret 0 0 ABS 0
__Lintret 0 0 ABS 0
__Hramtop 1000 0 RAM 0
__Lramtop 1000 0 RAM 0
__Hstruct 0 0 COMRAM 1
__Lstruct 0 0 COMRAM 1
__Hbigdata 0 0 BIGRAM 1
__Lbigdata 0 0 BIGRAM 1
__Hmediumconst 0 0 MEDIUMCONST 0
__Lmediumconst 0 0 MEDIUMCONST 0
__Hfarbss 0 0 FARRAM 0
__Lfarbss 0 0 FARRAM 0
__Hintcode 0 0 CODE 0
__Lintcode 0 0 CODE 0
__Hfardata 0 0 FARRAM 0
__Lfardata 0 0 FARRAM 0
__Habs1 0 0 ABS 0
__Labs1 0 0 ABS 0
__CFG_EBTR0$OFF 0 0 ABS 0
__HnvFARRAM 0 0 FARRAM 0
__LnvFARRAM 0 0 FARRAM 0
__CFG_EBTR1$OFF 0 0 ABS 0
__CFG_PBADEN$OFF 0 0 ABS 0
__CFG_CCP2MX$PORTC1 0 0 ABS 0
__CFG_EBTR2$OFF 0 0 ABS 0
__CFG_CCP3MX$PORTB5 0 0 ABS 0
__Hdata 0 0 ABS 0
__Ldata 0 0 ABS 0
__CFG_EBTR3$OFF 0 0 ABS 0
stackhi F37 0 ABS 0
__Htemp 0 0 COMRAM 1
__Ltemp 0 0 COMRAM 1
stacklo 60 0 ABS 0
__Hrbit 0 0 COMRAM 1
__Lrbit 0 0 COMRAM 1
__Hinit 4 0 CODE 0
__Linit 0 0 CODE 0
__Hintcodelo 0 0 CODE 0
__Lintcodelo 0 0 CODE 0
__Hrbss 0 0 COMRAM 1
__end_of_main 103A 0 CODE 0
__Lrbss 0 0 COMRAM 1
__Htext 0 0 ABS 0
__Ltext 0 0 ABS 0
end_of_initialization 103A 0 CODE 0
_SSP1ADD FC8 0 ABS 0
_TRISCbits F94 0 ABS 0
_TRISDbits F95 0 ABS 0
_SSP1BUF FC9 0 ABS 0
__Hibigdata 0 0 CODE 0
__Libigdata 0 0 CODE 0
__Hifardata 0 0 CODE 0
__Lifardata 0 0 CODE 0
__Hbank0 0 0 ABS 0
__Lbank0 0 0 ABS 0
__Hbank1 0 0 ABS 0
__Lbank1 0 0 ABS 0
__Hbank2 0 0 ABS 0
__Lbank2 0 0 ABS 0
__Hbank3 0 0 ABS 0
__Lbank3 0 0 ABS 0
__Hbank4 0 0 ABS 0
__Lbank4 0 0 ABS 0
__Hbank5 0 0 ABS 0
__Lbank5 0 0 ABS 0
__Hpowerup 0 0 CODE 0
__Lpowerup 0 0 CODE 0
__Hbank6 0 0 ABS 0
__Lbank6 0 0 ABS 0
__Hbank7 0 0 ABS 0
__Lbank7 0 0 ABS 0
__Hbank8 0 0 ABS 0
__Lbank8 0 0 ABS 0
__Htext0 0 0 ABS 0
__Ltext0 0 0 ABS 0
__Hbank9 0 0 ABS 0
__Lbank9 0 0 ABS 0
__ptext0 1014 0 CODE 0
__CFG_P2BMX$PORTD2 0 0 ABS 0
__CFG_T3CMX$PORTC0 0 0 ABS 0
__Hclrtext 0 0 ABS 0
__Lclrtext 0 0 ABS 0
__CFG_HFOFST$ON 0 0 ABS 0
__end_of__initialization 103A 0 CODE 0
__CFG_PRICLKEN$ON 0 0 ABS 0
___rparam_used 1 0 ABS 0
__Hidata 0 0 CODE 0
__Lidata 0 0 CODE 0
__Hrdata 0 0 COMRAM 1
__Lrdata 0 0 COMRAM 1
__Hidloc 200008 0 IDLOC 0
__Lidloc 200000 0 IDLOC 0
__CFG_PWRTEN$OFF 0 0 ABS 0
__Hstack 0 0 STACK 2
__Lstack 0 0 STACK 2
__Hparam 0 0 COMRAM 1
__Lparam 0 0 COMRAM 1
__Hspace_0 30000E 0 ABS 0
__HcstackCOMRAM 0 0 ABS 0
__Lspace_0 0 0 ABS 0
__LcstackCOMRAM 0 0 ABS 0
__pcstackCOMRAM 0 0 COMRAM 1
__Hspace_1 0 0 ABS 0
__Lspace_1 0 0 ABS 0
__Hsmallconst 1014 0 SMALLCONST 0
__Lsmallconst 1000 0 SMALLCONST 0
__psmallconst 1000 0 SMALLCONST 0
__Hspace_2 0 0 ABS 0
__Lspace_2 0 0 ABS 0
__Hnvbit 0 0 COMRAM 1
__Lnvbit 0 0 COMRAM 1
__Hcinit 0 0 ABS 0
__Lcinit 0 0 ABS 0
__pcinit 103A 0 CODE 0
__CFG_EBTRB$OFF 0 0 ABS 0
__ramtop 1000 0 RAM 0
__mediumconst 0 0 MEDIUMCONST 0
__size_of_main 0 0 ABS 0
__Hconst 0 0 CONST 0
__Lconst 0 0 CONST 0
__CFG_WRT0$OFF 0 0 ABS 0
__CFG_WRT1$OFF 0 0 ABS 0
_SSP1CON1 FC6 0 ABS 0
__CFG_MCLRE$EXTMCLR 0 0 ABS 0
__CFG_WRT2$OFF 0 0 ABS 0
__Hbank10 0 0 ABS 0
__Lbank10 0 0 ABS 0
_SSP1CON2 FC5 0 ABS 0
__Hbank11 0 0 ABS 0
__Lbank11 0 0 ABS 0
__CFG_WRT3$OFF 0 0 ABS 0
__CFG_FCMEN$OFF 0 0 ABS 0
__Hbank12 0 0 ABS 0
__Lbank12 0 0 ABS 0
__Hbank13 0 0 ABS 0
__Lbank13 0 0 ABS 0
__Hbank14 0 0 ABS 0
__Lbank14 0 0 ABS 0
__Hbank15 0 0 ABS 0
__Lbank15 0 0 ABS 0
___inthi_sp 0 0 STACK 2
_ANSELCbits F3A 0 ABS 0
__CFG_WDTEN$OFF 0 0 ABS 0
___intlo_sp 0 0 STACK 2
__CFG_CP0$OFF 0 0 ABS 0
__smallconst 1000 0 SMALLCONST 0
__CFG_CP1$OFF 0 0 ABS 0
__Hreset_vec 0 0 CODE 0
__Lreset_vec 0 0 CODE 0
__CFG_CP2$OFF 0 0 ABS 0
__CFG_CP3$OFF 0 0 ABS 0
__CFG_BORV$190 0 0 ABS 0
__accesstop 60 0 ABS 0
__Hintcode_body 0 0 ABS 0
__Lintcode_body 0 0 ABS 0
intlevel0 0 0 CODE 0
intlevel1 0 0 CODE 0
__CFG_WRTB$OFF 0 0 ABS 0
intlevel2 0 0 CODE 0
intlevel3 0 0 CODE 0
__CFG_WRTC$OFF 0 0 ABS 0
_SSP1CON2bits FC5 0 ABS 0
__CFG_WRTD$OFF 0 0 ABS 0
_SSP1CON3bits FCB 0 ABS 0
__CFG_CPB$OFF 0 0 ABS 0
__CFG_CPD$OFF 0 0 ABS 0
start_initialization 103A 0 CODE 0
__CFG_BOREN$SBORDIS 0 0 ABS 0
__CFG_IESO$OFF 0 0 ABS 0
__initialization 103A 0 CODE 0
__activetblptr 1 0 ABS 0
__CFG_LVP$OFF 0 0 ABS 0
%segments
reset_vec 0 3 CODE 0 0
smallconst 1000 1013 SMALLCONST 1000 0
config 300000 30000D CONFIG 300000 0
idloc 200000 200007 IDLOC 200000 0
text0 1014 1047 CODE 1014 0
%locals
dist/default/production\TP_Chenillard.X.production.o
C:\Program Files (x86)\Microchip\xc8\v2.10\pic\include\pic18f46k22.h
C:\Users\Azzaraf\AppData\Local\Temp\s648.s
1767 103A 0 CODE 0
1769 103A 0 CODE 0
1772 103A 0 CODE 0
1778 103A 0 CODE 0
1781 103A 0 CODE 0
1782 103C 0 CODE 0
1783 103E 0 CODE 0
1784 1040 0 CODE 0
1785 1042 0 CODE 0
1786 1044 0 CODE 0
main.c
87 1014 0 CODE 0
88 1014 0 CODE 0
89 101A 0 CODE 0
90 101E 0 CODE 0
92 1022 0 CODE 0
93 1022 0 CODE 0
95 1026 0 CODE 0
97 102A 0 CODE 0
99 102E 0 CODE 0
